Data Transformation With dplyr
…
2 nycflights13 data

Available from the nycflights13 package.

336,776 flights that departed from New York City in 2013:

R
Python
Julia

library("nycflights13")
flights

# A tibble: 336,776 × 19
    year month   day dep_time sched_dep_time dep_delay arr_time sched_arr_time
   <int> <int> <int>    <int>          <int>     <dbl>    <int>          <int>
 1  2013     1     1      517            515         2      830            819
 2  2013     1     1      533            529         4      850            830
 3  2013     1     1      542            540         2      923            850
 4  2013     1     1      544            545        -1     1004           1022
 5  2013     1     1      554            600        -6      812            837
 6  2013     1     1      554            558        -4      740            728
 7  2013     1     1      555            600        -5      913            854
 8  2013     1     1      557            600        -3      709            723
 9  2013     1     1      557            600        -3      838            846
10  2013     1     1      558            600        -2      753            745
# ℹ 336,766 more rows
# ℹ 11 more variables: arr_delay <dbl>, carrier <chr>, flight <int>,
#   tailnum <chr>, origin <chr>, dest <chr>, air_time <dbl>, distance <dbl>,
#   hour <dbl>, minute <dbl>, time_hour <dttm>
…
flights['time_hour'] = pd.to_datetime(flights['time_hour'])

Let’s use RCall.jl to retrieve the nycflights13 data from R.

using RCall

R"""
library(nycflights13)
"""

RObject{StrSxp}

flights = rcopy(R"flights")

336776×19 DataFrame
    Row │ year   month  day    dep_time  sched_dep_time  dep_delay  arr_time   ⋯
        │ Int64  Int64  Int64  Int64?    Int64           Float64?   Int64?     ⋯
────────┼───────────────────────────────────────────────────────────────────────
      1 │  2013      1      1       517             515        2.0       830   ⋯
      2 │  2013      1      1       533             529        4.0       850
      3 │  2013      1      1       542             540        2.0       923
      4 │  2013      1      1       544             545       -1.0      1004
      5 │  2013      1      1       554             600       -6.0       812   ⋯
      6 │  2013      1      1       554             558       -4.0       740
      7 │  2013      1      1       555             600       -5.0       913
      8 │  2013      1      1       557             600       -3.0       709
   ⋮    │   ⋮      ⋮      ⋮       ⋮            ⋮             ⋮         ⋮       ⋱
 336770 │  2013      9     30      2349            2359      -10.0       325   ⋯
 336771 │  2013      9     30   missing            1842  missing     missing
 336772 │  2013      9     30   missing            1455  missing     missing
 336773 │  2013      9     30   missing            2200  missing     missing
 336774 │  2013      9     30   missing            1210  missing     missing   ⋯
 336775 │  2013      9     30   missing            1159  missing     missing
 336776 │  2013      9     30   missing             840  missing     missing
                                              12 columns and 336761 rows omitted

To display more rows or columns:

R
Python
Julia

By default, tibble prints the first 10 rows and all columns that fit on screen.

To change number of rows and columns to display:

nycflights13::flights |> 
  print(n = 10, width = Inf)

# A tibble: 336,776 × 19
    year month   day dep_time sched_dep_time dep_delay arr_time sched_arr_time
   <int> <int> <int>    <int>          <int>     <dbl>    <int>          <int>
 1  2013     1     1      517            515         2      830            819
 2  2013     1     1      533            529         4      850            830
 3  2013     1     1      542            540         2      923            850
 4  2013     1     1      544            545        -1     1004           1022
 5  2013     1     1      554            600        -6      812            837
 6  2013     1     1      554            558        -4      740            728
 7  2013     1     1      555            600        -5      913            854
 8  2013     1     1      557            600        -3      709            723
 9  2013     1     1      557            600        -3      838            846
10  2013     1     1      558            600        -2      753            745
   arr_delay carrier flight tailnum origin dest  air_time distance  hour minute
       <dbl> <chr>    <int> <chr>   <chr>  <chr>    <dbl>    <dbl> <dbl>  <dbl>
 1        11 UA        1545 N14228  EWR    IAH        227     1400     5     15
 2        20 UA        1714 N24211  LGA    IAH        227     1416     5     29
 3        33 AA        1141 N619AA  JFK    MIA        160     1089     5     40
 4       -18 B6         725 N804JB  JFK    BQN        183     1576     5     45
 5       -25 DL         461 N668DN  LGA    ATL        116      762     6      0
 6        12 UA        1696 N39463  EWR    ORD        150      719     5     58
 7        19 B6         507 N516JB  EWR    FLL        158     1065     6      0
 8       -14 EV        5708 N829AS  LGA    IAD         53      229     6      0
 9        -8 B6          79 N593JB  JFK    MCO        140      944     6      0
10         8 AA         301 N3ALAA  LGA    ORD        138      733     6      0
   time_hour          
   <dttm>             
 1 2013-01-01 05:00:00
 2 2013-01-01 05:00:00
 3 2013-01-01 05:00:00
 4 2013-01-01 05:00:00
 5 2013-01-01 06:00:00
 6 2013-01-01 05:00:00
 7 2013-01-01 06:00:00
 8 2013-01-01 06:00:00
 9 2013-01-01 06:00:00
10 2013-01-01 06:00:00
# ℹ 336,766 more rows
…
4 Manipulate rows (cases)

4.1 Filter rows with filter()

Flights on Jan 1st:

R
Python
Julia

# same as filter(flights, month == 1 & day == 1)
filter(flights, month == 1, day == 1)

# A tibble: 842 × 19
    year month   day dep_time sched_dep_time dep_delay arr_time sched_arr_time
   <int> <int> <int>    <int>          <int>     <dbl>    <int>          <int>
 1  2013     1     1      517            515         2      830            819
 2  2013     1     1      533            529         4      850            830
 3  2013     1     1      542            540         2      923            850
 4  2013     1     1      544            545        -1     1004           1022
 5  2013     1     1      554            600        -6      812            837
 6  2013     1     1      554            558        -4      740            728
 7  2013     1     1      555            600        -5      913            854
 8  2013     1     1      557            600        -3      709            723
 9  2013     1     1      557            600        -3      838            846
10  2013     1     1      558            600        -2      753            745
# ℹ 832 more rows
# ℹ 11 more variables: arr_delay <dbl>, carrier <chr>, flight <int>,
#   tailnum <chr>, origin <chr>, dest <chr>, air_time <dbl>, distance <dbl>,
#   hour <dbl>, minute <dbl>, time_hour <dttm>
…
[842 rows x 19 columns]

filter(row -> (row.month == 1) & (row.day == 1), flights)

842×19 DataFrame
 Row │ year   month  day    dep_time  sched_dep_time  dep_delay  arr_time  sch ⋯
     │ Int64  Int64  Int64  Int64?    Int64           Float64?   Int64?    Int ⋯
─────┼──────────────────────────────────────────────────────────────────────────
   1 │  2013      1      1       517             515        2.0       830      ⋯
   2 │  2013      1      1       533             529        4.0       850
   3 │  2013      1      1       542             540        2.0       923
   4 │  2013      1      1       544             545       -1.0      1004
   5 │  2013      1      1       554             600       -6.0       812      ⋯
   6 │  2013      1      1       554             558       -4.0       740
   7 │  2013      1      1       555             600       -5.0       913
   8 │  2013      1      1       557             600       -3.0       709
  ⋮  │   ⋮      ⋮      ⋮       ⋮            ⋮             ⋮         ⋮          ⋱
 836 │  2013      1      1      2353            2359       -6.0       425      ⋯
 837 │  2013      1      1      2353            2359       -6.0       418
 838 │  2013      1      1      2356            2359       -3.0       425
 839 │  2013      1      1   missing            1630  missing     missing
 840 │  2013      1      1   missing            1935  missing     missing      ⋯
 841 │  2013      1      1   missing            1500  missing     missing
 842 │  2013      1      1   missing             600  missing     missing
                                                 12 columns and 827 rows omitted

Flights in Nov or Dec:

R
Python
Julia

filter(flights, month == 11 | month == 12)

# A tibble: 55,403 × 19
    year month   day dep_time sched_dep_time dep_delay arr_time sched_arr_time
   <int> <int> <int>    <int>          <int>     <dbl>    <int>          <int>
 1  2013    11     1        5           2359         6      352            345
 2  2013    11     1       35           2250       105      123           2356
 3  2013    11     1      455            500        -5      641            651
 4  2013    11     1      539            545        -6      856            827
 5  2013    11     1      542            545        -3      831            855
 6  2013    11     1      549            600       -11      912            923
 7  2013    11     1      550            600       -10      705            659
 8  2013    11     1      554            600        -6      659            701
 9  2013    11     1      554            600        -6      826            827
10  2013    11     1      554            600        -6      749            751
# ℹ 55,393 more rows
# ℹ 11 more variables: arr_delay <dbl>, carrier <chr>, flight <int>,
#   tailnum <chr>, origin <chr>, dest <chr>, air_time <dbl>, distance <dbl>,
#   hour <dbl>, minute <dbl>, time_hour <dttm>
…
[55403 rows x 19 columns]

filter(row -> (row.month == 11) | (row.month == 12), flights)

55403×19 DataFrame
   Row │ year   month  day    dep_time  sched_dep_time  dep_delay  arr_time  s ⋯
       │ Int64  Int64  Int64  Int64?    Int64           Float64?   Int64?    I ⋯
───────┼────────────────────────────────────────────────────────────────────────
     1 │  2013     11      1         5            2359        6.0       352    ⋯
     2 │  2013     11      1        35            2250      105.0       123
     3 │  2013     11      1       455             500       -5.0       641
     4 │  2013     11      1       539             545       -6.0       856
     5 │  2013     11      1       542             545       -3.0       831    ⋯
     6 │  2013     11      1       549             600      -11.0       912
     7 │  2013     11      1       550             600      -10.0       705
     8 │  2013     11      1       554             600       -6.0       659
   ⋮   │   ⋮      ⋮      ⋮       ⋮            ⋮             ⋮         ⋮        ⋱
 55397 │  2013     12     31   missing            1430  missing     missing    ⋯
 55398 │  2013     12     31   missing             855  missing     missing
 55399 │  2013     12     31   missing             705  missing     missing
 55400 │  2013     12     31   missing             825  missing     missing
 55401 │  2013     12     31   missing            1615  missing     missing    ⋯
 55402 │  2013     12     31   missing             600  missing     missing
 55403 │  2013     12     31   missing             830  missing     missing
                                               12 columns and 55388 rows omitted
…
Randomly select fraction of rows:

sample_frac(flights, 0.1, replace = TRUE)

# A tibble: 33,678 × 19
    year month   day dep_time sched_dep_time dep_delay arr_time sched_arr_time
   <int> <int> <int>    <int>          <int>     <dbl>    <int>          <int>
 1  2013     3    29     1108           1104         4     1415           1436
 2  2013    12     3      733            737        -4      905            921
 3  2013     5    16      918            906        12     1203           1203
 4  2013     3    11     1345           1329        16     1533           1533
 5  2013    11    18     1526           1530        -4     1913           1845
 6  2013    10    18     1521           1515         6     1846           1810
 7  2013     9    18     1852           1855        -3     2044           2059
 8  2013    12    25     1920           1920         0     2131           2127
 9  2013     9    11     1540           1545        -5     1743           1733
10  2013     6    23     1021           1029        -8     1206           1240
# ℹ 33,668 more rows
# ℹ 11 more variables: arr_delay <dbl>, carrier <chr>, flight <int>,
#   tailnum <chr>, origin <chr>, dest <chr>, air_time <dbl>, distance <dbl>,
#   hour <dbl>, minute <dbl>, time_hour <dttm>
…
Sample 10% rows:

rowidx = StatsBase.sample(
  1:nrow(flights), 
  round(Int, nrow(flights) * 0.1), 
  replace = true);
flights[rowidx, :]

33678×19 DataFrame
   Row │ year   month  day    dep_time  sched_dep_time  dep_delay  arr_time  s ⋯
       │ Int64  Int64  Int64  Int64?    Int64           Float64?   Int64?    I ⋯
───────┼────────────────────────────────────────────────────────────────────────
     1 │  2013      5     31       931             938       -7.0      1152    ⋯
     2 │  2013      5     19      2122            2100       22.0      2346
     3 │  2013     12     16       458             500       -2.0       641
     4 │  2013      3     28      1522            1529       -7.0      1744
     5 │  2013      6     23      2048            2049       -1.0        48    ⋯
     6 │  2013     11     18      1623            1635      -12.0      1801
     7 │  2013     12     14      1729            1647       42.0      1939
     8 │  2013     11     24      1704            1700        4.0      1950
   ⋮   │   ⋮      ⋮      ⋮       ⋮            ⋮             ⋮         ⋮        ⋱
 33672 │  2013      8     16      1928            1900       28.0      2211    ⋯
 33673 │  2013      7      9      2035            1930       65.0      2306
 33674 │  2013      8      5      1755            1759       -4.0      2030
 33675 │  2013      1     24      1258            1218       40.0      1451
 33676 │  2013      1      4       700             700        0.0       956    ⋯
 33677 │  2013      9      9      2131            2140       -9.0      2239
 33678 │  2013      8     14      1310            1315       -5.0      1552
                                               12 columns and 33663 rows omitted
…
Top n rows with the highest values:

# deprecated: top_n(flights, 5, wt = distance)
# This function is quick
slice_max(flights, n = 5, order_by = distance) |>
  print(width = Inf)

# A tibble: 342 × 19
    year month   day dep_time sched_dep_time dep_delay arr_time sched_arr_time
   <int> <int> <int>    <int>          <int>     <dbl>    <int>          <int>
 1  2013     1     1      857            900        -3     1516           1530
 2  2013     1     2      909            900         9     1525           1530
 3  2013     1     3      914            900        14     1504           1530
 4  2013     1     4      900            900         0     1516           1530
 5  2013     1     5      858            900        -2     1519           1530
 6  2013     1     6     1019            900        79     1558           1530
 7  2013     1     7     1042            900       102     1620           1530
 8  2013     1     8      901            900         1     1504           1530
 9  2013     1     9      641            900      1301     1242           1530
10  2013     1    10      859            900        -1     1449           1530
   arr_delay carrier flight tailnum origin dest  air_time distance  hour minute
       <dbl> <chr>    <int> <chr>   <chr>  <chr>    <dbl>    <dbl> <dbl>  <dbl>
 1       -14 HA          51 N380HA  JFK    HNL        659     4983     9      0
 2        -5 HA          51 N380HA  JFK    HNL        638     4983     9      0
 3       -26 HA          51 N380HA  JFK    HNL        616     4983     9      0
 4       -14 HA          51 N384HA  JFK    HNL        639     4983     9      0
 5       -11 HA          51 N381HA  JFK    HNL        635     4983     9      0
 6        28 HA          51 N385HA  JFK    HNL        611     4983     9      0
 7        50 HA          51 N385HA  JFK    HNL        612     4983     9      0
 8       -26 HA          51 N389HA  JFK    HNL        645     4983     9      0
 9      1272 HA          51 N384HA  JFK    HNL        640     4983     9      0
10       -41 HA          51 N388HA  JFK    HNL        633     4983     9      0
   time_hour          
   <dttm>             
 1 2013-01-01 09:00:00
 2 2013-01-02 09:00:00
 3 2013-01-03 09:00:00
 4 2013-01-04 09:00:00
 5 2013-01-05 09:00:00
 6 2013-01-06 09:00:00
 7 2013-01-07 09:00:00
 8 2013-01-08 09:00:00
 9 2013-01-09 09:00:00
10 2013-01-10 09:00:00
# ℹ 332 more rows

Bottom n rows with lowest values:

# same as slice_max(flights, n = 5, order_by = desc(distance))
slice_min(flights, n = 5, order_by = distance) |>
  print(width = Inf)

# A tibble: 50 × 19
    year month   day dep_time sched_dep_time dep_delay arr_time sched_arr_time
   <int> <int> <int>    <int>          <int>     <dbl>    <int>          <int>
 1  2013     7    27       NA            106        NA       NA            245
 2  2013     1     3     2127           2129        -2     2222           2224
 3  2013     1     4     1240           1200        40     1333           1306
 4  2013     1     4     1829           1615       134     1937           1721
 5  2013     1     4     2128           2129        -1     2218           2224
 6  2013     1     5     1155           1200        -5     1241           1306
 7  2013     1     6     2125           2129        -4     2224           2224
 8  2013     1     7     2124           2129        -5     2212           2224
 9  2013     1     8     2127           2130        -3     2304           2225
10  2013     1     9     2126           2129        -3     2217           2224
   arr_delay carrier flight tailnum origin dest  air_time distance  hour minute
       <dbl> <chr>    <int> <chr>   <chr>  <chr>    <dbl>    <dbl> <dbl>  <dbl>
 1        NA US        1632 <NA>    EWR    LGA         NA       17     1      6
 2        -2 EV        3833 N13989  EWR    PHL         30       80    21     29
 3        27 EV        4193 N14972  EWR    PHL         30       80    12      0
 4       136 EV        4502 N15983  EWR    PHL         28       80    16     15
 5        -6 EV        4645 N27962  EWR    PHL         32       80    21     29
 6       -25 EV        4193 N14902  EWR    PHL         29       80    12      0
 7         0 EV        4619 N22909  EWR    PHL         22       80    21     29
 8       -12 EV        4619 N33182  EWR    PHL         25       80    21     29
 9        39 EV        4619 N11194  EWR    PHL         30       80    21     30
10        -7 EV        4619 N17560  EWR    PHL         27       80    21     29
   time_hour          
   <dttm>             
 1 2013-07-27 01:00:00
 2 2013-01-03 21:00:00
 3 2013-01-04 12:00:00
 4 2013-01-04 16:00:00
 5 2013-01-04 21:00:00
 6 2013-01-05 12:00:00
 7 2013-01-06 21:00:00
 8 2013-01-07 21:00:00
 9 2013-01-08 21:00:00
10 2013-01-09 21:00:00
# ℹ 40 more rows
…
